        1.        1.        9.      959.          0.0
        5.        0.        0.        0.
  -79.4488        0.        0.        1.
      -77.  -6.39           0.        1.
  -58.8935  -53.6377        0.        1.
  -63.4210  -53.6377        0.        1.
  -89.3005   -6.39          0.        1.
  -92.8006    0.0           0.0       0.0
   1.  20.  20.  .78  .61   0.0   0.0
   .5
